Chapter 4 Manipulating sequences with Biostrings | Bioinformatics
…
4.4 Tidy Bioconductor?

Although Bioconductor emphasizes formal objects like DNAStringSet rather than tibble-like data frames, some of the ways one interacts with tidy data can be applied to Bioconductor objects. For instance, the GC content example might be written in ‘traditional’ form as

gc <- letterFrequency(dna, "GC", as.prob = TRUE)

but could be written using pipes and to reesult in a tibble for easier down-stream manipulation

gc <- 
    dna %>%
    letterFrequency("GC", as.prob = TRUE) %>%
    tibble::as_tibble()
gc

## # A tibble: 26,454 x 1
##    `G|C`
##    <dbl>
##  1 0.378
##  2 0.43 
##  3 0.43 
##  4 0.43 
##  5 0.43 
##  6 0.43 
##  7 0.43 
##  8 0.43 
##  9 0.43 
## 10 0.43 
## # … with 26,444 more rows
…
